mariaprobert-final - Cleaning
…
# This takes that list of urls and then runs our parse_page() function on each one.
# The result is a list tibbles, i.e., a table from each page
requests <- map(urls, parse_page)

# list_rbind is a special function that binds a list of tibbles into a single one
climate_data <- requests |> list_rbind() 

# here we just peek at the table
climate <- climate_data |> mutate(source= "climate")

climate

# A tibble: 384 × 5
   unidad_geografica_str valor   ano cve_unidad_geografica source 
   <chr>                 <dbl> <int>                 <int> <chr>  
 1 Aguascalientes         69.6  2011                     1 climate
 2 Durango                49.6  2011                    10 climate
 3 Guanajuato             54.7  2011                    11 climate
 4 Guerrero               32.0  2011                    12 climate
 5 Hidalgo                37.7  2011                    13 climate
 6 Jalisco                63.8  2011                    14 climate
 7 México                 55.7  2011                    15 climate
 8 Michoacán              47.9  2011                    16 climate
 9 Morelos                58.1  2011                    17 climate
10 Nayarit                53.6  2011                    18 climate
# ℹ 374 more rows
…
# This takes that list of urls and then runs our parse_page() function on each one.
# The result is a list tibbles, i.e., a table from each page
requests <- map(urls, parse_page)

# list_rbind is a special function that binds a list of tibbles into a single one
water_insecurity_data <- requests |> list_rbind()

# here we just peek at the table
water_insecurity <- water_insecurity_data |> 
  mutate(source = "water_insecurity")

water_insecurity

# A tibble: 66 × 5
   unidad_geografica_str valor   ano cve_unidad_geografica source          
   <chr>                 <dbl> <int>                 <int> <chr>           
 1 Nacional              15.4   2021                     0 water_insecurity
 2 Aguascalientes        17.4   2021                     1 water_insecurity
 3 Durango                9.33  2021                    10 water_insecurity
 4 Guanajuato             8.72  2021                    11 water_insecurity
 5 Guerrero              26.1   2021                    12 water_insecurity
 6 Hidalgo               16.0   2021                    13 water_insecurity
 7 Jalisco               21.6   2021                    14 water_insecurity
 8 México                24.2   2021                    15 water_insecurity
 9 Michoacán             20.4   2021                    16 water_insecurity
10 Morelos               19.3   2021                    17 water_insecurity
# ℹ 56 more rows
…
i <- 1:7

urls <- str_glue("https://planestrategico.conl.mx/indicadores/detalle/ods/122/datos?page={i}")

requests <- map(urls, parse_page)

groundwater_data <- requests |> list_rbind()

groundwater <- groundwater_data |> 
  mutate(source = "groundwater")

groundwater

# A tibble: 64 × 5
   unidad_geografica_str  valor   ano cve_unidad_geografica source     
   <chr>                  <dbl> <int>                 <int> <chr>      
 1 Aguascalientes        -108.   2018                     1 groundwater
 2 Durango                 30    2018                    10 groundwater
 3 Guanajuato            -465.   2018                    11 groundwater
 4 Guerrero               762.   2018                    12 groundwater
 5 Hidalgo                236.   2018                    13 groundwater
 6 Jalisco               -246.   2018                    14 groundwater
 7 México                -350.   2018                    15 groundwater
 8 Michoacán              228.   2018                    16 groundwater
 9 Morelos                 37.2  2018                    17 groundwater
10 Nayarit                 93.3  2018                    18 groundwater
# ℹ 54 more rows
…
i <- 1:53

urls <- str_glue("https://planestrategico.conl.mx/indicadores/detalle/ods/135/datos?page={i}")

requests <- map(urls, parse_page)

reforestation_data <- requests |> list_rbind()

reforestation <- reforestation_data |> 
  mutate(source = "reforestation")

reforestation

# A tibble: 528 × 5
   unidad_geografica_str   valor   ano cve_unidad_geografica source       
   <chr>                   <dbl> <int>                 <int> <chr>        
 1 Nacional              14513.   1993                     0 reforestation
 2 Aguascalientes          123.   1993                     1 reforestation
 3 Durango                 648.   1993                    10 reforestation
 4 Guanajuato               42.8  1993                    11 reforestation
 5 Guerrero                737.   1993                    12 reforestation
 6 Hidalgo                 285.   1993                    13 reforestation
 7 Jalisco                 316.   1993                    14 reforestation
 8 México                  734    1993                    15 reforestation
 9 Michoacán               802.   1993                    16 reforestation
10 Morelos                 982.   1993                    17 reforestation
# ℹ 518 more rows

Combine the data

In order to export and analyze my data I combined all of the variables together. Since they all have the same table format, it was easy to make each one match up.

all_the_data <- bind_rows(climate, 
 water_insecurity, groundwater, reforestation)

all_the_data

# A tibble: 1,042 × 5
   unidad_geografica_str valor   ano cve_unidad_geografica source 
   <chr>                 <dbl> <int>                 <int> <chr>  
 1 Aguascalientes         69.6  2011                     1 climate
 2 Durango                49.6  2011                    10 climate
 3 Guanajuato             54.7  2011                    11 climate
 4 Guerrero               32.0  2011                    12 climate
 5 Hidalgo                37.7  2011                    13 climate
 6 Jalisco                63.8  2011                    14 climate
 7 México                 55.7  2011                    15 climate
 8 Michoacán              47.9  2011                    16 climate
 9 Morelos                58.1  2011                    17 climate
10 Nayarit                53.6  2011                    18 climate
# ℹ 1,032 more rows
…
