mariaprobert-final - Analysis
…
To look at how the different states perform per year, I want to create a line chart for the climate change index score.

Here we will prepare the data to isolate the climate change index:

climate_change_index <- all_the_data |>
  filter(source == "climate") |>
  group_by(unidad_geografica_str, ano) |>
  select(unidad_geografica_str, valor, ano) |> 
  mutate(ano= str_c("01-01-", ano) |> mdy() ) |> 
    filter(unidad_geografica_str != "Nacional") 

climate_change_index

# A tibble: 384 × 3
# Groups:   unidad_geografica_str, ano [384]
   unidad_geografica_str valor ano       
   <chr>                 <dbl> <date>    
 1 Aguascalientes         69.6 2011-01-01
 2 Durango                49.6 2011-01-01
 3 Guanajuato             54.7 2011-01-01
 4 Guerrero               32.0 2011-01-01
 5 Hidalgo                37.7 2011-01-01
 6 Jalisco                63.8 2011-01-01
 7 México                 55.7 2011-01-01
 8 Michoacán              47.9 2011-01-01
 9 Morelos                58.1 2011-01-01
10 Nayarit                53.6 2011-01-01
# ℹ 374 more rows
…
Now I want to compare the percentage of homes that the Household Water Insecurity Experiences-HWISE qualifies as going through drinking water insecurity. This data focuses on data just from 2021 to 2022.

This particular data set also includes “Nacional” which represents the average percentage of homes dealing with water insecurity in the entire country.

Here I am preparing the data:

water_insecurity_percent <- all_the_data |>
  filter(source == "water_insecurity") |>
  group_by(unidad_geografica_str, ano) |>
  select(unidad_geografica_str, valor, ano) |>
  mutate(ano= str_c("01-01-", ano) |> mdy() )

water_insecurity_percent

# A tibble: 66 × 3
# Groups:   unidad_geografica_str, ano [66]
   unidad_geografica_str valor ano       
   <chr>                 <dbl> <date>    
 1 Nacional              15.4  2021-01-01
 2 Aguascalientes        17.4  2021-01-01
 3 Durango                9.33 2021-01-01
 4 Guanajuato             8.72 2021-01-01
 5 Guerrero              26.1  2021-01-01
 6 Hidalgo               16.0  2021-01-01
 7 Jalisco               21.6  2021-01-01
 8 México                24.2  2021-01-01
 9 Michoacán             20.4  2021-01-01
10 Morelos               19.3  2021-01-01
# ℹ 56 more rows
…
Now I will look at the volume of available groundwater that can be used by each population in a way that will not hurt the environment.

The data for this variable only accounts for information from 2018 and 2020.

Here I prepared the data:

groundwater_volume <- all_the_data |>
  filter(source == "groundwater") |>
  group_by(unidad_geografica_str, ano) |>
  select(unidad_geografica_str, valor, ano) |>
  mutate(ano= str_c("01-01-", ano) |> mdy() )

groundwater_volume

# A tibble: 64 × 3
# Groups:   unidad_geografica_str, ano [64]
   unidad_geografica_str  valor ano       
   <chr>                  <dbl> <date>    
 1 Aguascalientes        -108.  2018-01-01
 2 Durango                 30   2018-01-01
 3 Guanajuato            -465.  2018-01-01
 4 Guerrero               762.  2018-01-01
 5 Hidalgo                236.  2018-01-01
 6 Jalisco               -246.  2018-01-01
 7 México                -350.  2018-01-01
 8 Michoacán              228.  2018-01-01
 9 Morelos                 37.2 2018-01-01
10 Nayarit                 93.3 2018-01-01
# ℹ 54 more rows
…
Reforestation

Lastly, I will add the data for the hectares of reforestation done by each state. This data also includes “Nacional” or the amount of hectares reforested in the entire nation by year.

I prepare the data:

reforestation_hectares <- all_the_data |>
  filter(source == "reforestation") |>
  group_by(unidad_geografica_str, ano) |>
  select(unidad_geografica_str, valor, ano) |>
  mutate(ano= str_c("01-01-", ano) |> mdy() )

reforestation_hectares

# A tibble: 528 × 3
# Groups:   unidad_geografica_str, ano [528]
   unidad_geografica_str   valor ano       
   <chr>                   <dbl> <date>    
 1 Nacional              14513.  1993-01-01
 2 Aguascalientes          123.  1993-01-01
 3 Durango                 648.  1993-01-01
 4 Guanajuato               42.8 1993-01-01
 5 Guerrero                737.  1993-01-01
 6 Hidalgo                 285.  1993-01-01
 7 Jalisco                 316.  1993-01-01
 8 México                  734   1993-01-01
 9 Michoacán               802.  1993-01-01
10 Morelos                 982.  1993-01-01
# ℹ 518 more rows
…
Here I will use a ranking to determine how well each state performed in each category.

Starting with the ranking for the climate change index:

climate_rank <- climate_change_index |>
  group_by(ano) |>
  ## Group by year so I could see the ranking by year 
  mutate(ranking = dense_rank(desc(valor))) |>
## Then created the rank variable in descending order because a higher score is a better score. 
 arrange(desc(valor)) |> 
## I wanted to visualize the highest to lowest scores all together 
  add_column(source = "Climate")
climate_rank

# A tibble: 384 × 5
# Groups:   ano [12]
   unidad_geografica_str valor ano        ranking source 
   <chr>                 <dbl> <date>       <int> <chr>  
 1 Ciudad de México       83.4 2015-01-01       1 Climate
 2 Ciudad de México       83.2 2016-01-01       1 Climate
 3 Ciudad de México       80.4 2014-01-01       1 Climate
 4 Ciudad de México       80.2 2013-01-01       1 Climate
 5 Ciudad de México       80.1 2012-01-01       1 Climate
 6 Ciudad de México       80.0 2011-01-01       1 Climate
 7 Ciudad de México       78.3 2018-01-01       1 Climate
 8 Ciudad de México       77.3 2017-01-01       1 Climate
 9 Ciudad de México       71.8 2020-01-01       1 Climate
10 Ciudad de México       71.7 2022-01-01       1 Climate
# ℹ 374 more rows
…
Now I want to look at the water insecurity percentage data and rank each states performance:

water_insecurity_rank <- water_insecurity_percent |>
  group_by(ano) |>
  ## Group by year so I could see the ranking by year 
  mutate(ranking = dense_rank(valor)) |>
## Then created the rank variable in descending order because a higher score is a better score. 
 arrange(valor) |>
## I wanted to visualize the highest to lowest scores all together 
  add_column(source = "Water insecurity")

water_insecurity_rank

# A tibble: 66 × 5
# Groups:   ano [2]
   unidad_geografica_str valor ano        ranking source          
   <chr>                 <dbl> <date>       <int> <chr>           
 1 Yucatán                3.55 2021-01-01       1 Water insecurity
 2 Chihuahua              3.85 2021-01-01       2 Water insecurity
 3 Quintana Roo           4.38 2021-01-01       3 Water insecurity
 4 Tamaulipas             4.52 2021-01-01       4 Water insecurity
 5 Tlaxcala               5.14 2022-01-01       1 Water insecurity
 6 Yucatán                5.50 2022-01-01       2 Water insecurity
 7 Campeche               6.72 2022-01-01       3 Water insecurity
 8 Nuevo León             7.00 2021-01-01       5 Water insecurity
 9 Sinaloa                7.32 2022-01-01       4 Water insecurity
10 Colima                 7.65 2021-01-01       6 Water insecurity
# ℹ 56 more rows
…
Groundwater ranking for the states with the most amount of groundwater is represented with this data:

groundwater_rank <- groundwater_volume |>
  group_by(ano) |>
  ## Group by year so I could see the ranking by year 
  mutate(ranking = dense_rank(desc(valor))) |>
## Then created the rank variable in descending order because a higher score is a better score. 
 arrange(desc(valor)) |> 
## I wanted to visualize the highest to lowest scores all together 
   add_column(source = "Groundwater")

groundwater_rank

# A tibble: 64 × 5
# Groups:   ano [2]
   unidad_geografica_str valor ano        ranking source     
   <chr>                 <dbl> <date>       <int> <chr>      
 1 Tabasco               7613. 2018-01-01       1 Groundwater
 2 Tabasco               7556. 2020-01-01       1 Groundwater
 3 Yucatán               2843. 2018-01-01       2 Groundwater
 4 Chiapas               2755. 2020-01-01       2 Groundwater
 5 Chiapas               2747. 2018-01-01       3 Groundwater
 6 Yucatán               2387. 2020-01-01       3 Groundwater
 7 Guerrero               762. 2018-01-01       4 Groundwater
 8 Guerrero               719. 2020-01-01       4 Groundwater
 9 Veracruz               655. 2018-01-01       5 Groundwater
10 Veracruz               528. 2020-01-01       5 Groundwater
# ℹ 54 more rows
…
Finally, lets look at the ranking for reforestation efforts in each state:

reforestation_rank <- reforestation_hectares |> 
  filter(unidad_geografica_str != "Nacional") |>
  group_by(ano) |>
  ## Group by year so I could see the ranking by year 
  mutate(ranking = dense_rank(desc(valor))) |>
## Then created the rank variable in descending order because a higher score is a better score. 
 arrange(desc(valor)) |> 
## I wanted to visualize the highest to lowest scores all together 
  add_column(source = "Reforestation")

reforestation_rank

# A tibble: 512 × 5
# Groups:   ano [16]
   unidad_geografica_str  valor ano        ranking source       
   <chr>                  <dbl> <date>       <int> <chr>        
 1 San Luis Potosí       35176. 2012-01-01       1 Reforestation
 2 Coahuila              31747  2012-01-01       2 Reforestation
 3 Veracruz              29315. 2012-01-01       3 Reforestation
 4 Zacatecas             28395  2012-01-01       4 Reforestation
 5 Coahuila              24380  2011-01-01       1 Reforestation
 6 Chiapas               24009. 2012-01-01       5 Reforestation
 7 Veracruz              23735  2005-01-01       1 Reforestation
 8 Puebla                22390. 2012-01-01       6 Reforestation
 9 Tamaulipas            21571  2000-01-01       1 Reforestation
10 Quintana Roo          20386  2000-01-01       2 Reforestation
# ℹ 502 more rows
…
Nuevo León ranking

In order to see how my home state of Nuevo León did in all of the categories I have to put the ranking data together:

I will combine the ranking using bind.rows:

nuevo_leon_ranking <- 
bind_rows(climate_rank, water_insecurity_rank, groundwater_rank, reforestation_rank) |> 
  filter(unidad_geografica_str == "Nuevo León")

nuevo_leon_ranking

# A tibble: 32 × 5
# Groups:   ano [17]
   unidad_geografica_str valor ano        ranking source 
   <chr>                 <dbl> <date>       <int> <chr>  
 1 Nuevo León             68.8 2014-01-01       3 Climate
 2 Nuevo León             68.1 2016-01-01       3 Climate
 3 Nuevo León             67.4 2015-01-01       2 Climate
 4 Nuevo León             66.1 2013-01-01       3 Climate
 5 Nuevo León             62.7 2012-01-01       3 Climate
 6 Nuevo León             59.9 2017-01-01       4 Climate
 7 Nuevo León             57.6 2011-01-01       9 Climate
 8 Nuevo León             56.1 2018-01-01       5 Climate
 9 Nuevo León             39.0 2019-01-01       5 Climate
10 Nuevo León             37.6 2022-01-01       4 Climate
# ℹ 22 more rows
…
